<?xml version="1.0" encoding="UTF-8" standalone="no"?>
<!-- Generator: Adobe Illustrator 19.0.0, SVG Export Plug-In . SVG Version: 6.00 Build 0)  -->

<svg
   xmlns:dc="http://purl.org/dc/elements/1.1/"
   xmlns:cc="http://creativecommons.org/ns#"
   xmlns:rdf="http://www.w3.org/1999/02/22-rdf-syntax-ns#"
   xmlns:svg="http://www.w3.org/2000/svg"
   xmlns="http://www.w3.org/2000/svg"
   xmlns:sodipodi="http://sodipodi.sourceforge.net/DTD/sodipodi-0.dtd"
   xmlns:inkscape="http://www.inkscape.org/namespaces/inkscape"
   version="1.1"
   id="Capa_1"
   x="0px"
   y="0px"
   viewBox="0 0 20 20"
   xml:space="preserve"
   sodipodi:docname="hundred.svg"
   width="20"
   height="20"
   inkscape:version="0.92.3 (2405546, 2018-03-11)"><metadata
   id="metadata43"><rdf:RDF><cc:Work
       rdf:about=""><dc:format>image/svg+xml</dc:format><dc:type
         rdf:resource="http://purl.org/dc/dcmitype/StillImage" /><dc:title /></cc:Work></rdf:RDF></metadata><defs
   id="defs41" /><sodipodi:namedview
   pagecolor="#ffffff"
   bordercolor="#666666"
   borderopacity="1"
   objecttolerance="10"
   gridtolerance="10"
   guidetolerance="10"
   inkscape:pageopacity="0"
   inkscape:pageshadow="2"
   inkscape:window-width="1280"
   inkscape:window-height="751"
   id="namedview39"
   showgrid="false"
   inkscape:zoom="5"
   inkscape:cx="36.5"
   inkscape:cy="33.2"
   inkscape:window-x="0"
   inkscape:window-y="0"
   inkscape:window-maximized="1"
   inkscape:current-layer="Capa_1" />
<g
   id="g6"
   transform="matrix(0.03906235,0,0,0.03906235,-1.7336248e-5,2.4999891)">
	<g
   id="g4">
		<path
   d="m 508.564,162.835 c -69,-63.74 -158.708,-98.833 -252.563,-98.833 -93.855,0 -183.562,35.093 -252.562,98.833 -4.333,3.99 -4.604,10.729 -0.625,15.052 l 245.333,266.667 c 2.021,2.198 4.875,3.448 7.854,3.448 2.979,0 5.833,-1.25 7.854,-3.448 L 509.188,177.887 c 3.98,-4.323 3.709,-11.063 -0.624,-15.052 z"
   id="path2"
   inkscape:connector-curvature="0" />
	</g>
</g>
<g
   id="g8"
   transform="translate(0,-492.00299)">
</g>
<g
   id="g10"
   transform="translate(0,-492.00299)">
</g>
<g
   id="g12"
   transform="translate(0,-492.00299)">
</g>
<g
   id="g14"
   transform="translate(0,-492.00299)">
</g>
<g
   id="g16"
   transform="translate(0,-492.00299)">
</g>
<g
   id="g18"
   transform="translate(0,-492.00299)">
</g>
<g
   id="g20"
   transform="translate(0,-492.00299)">
</g>
<g
   id="g22"
   transform="translate(0,-492.00299)">
</g>
<g
   id="g24"
   transform="translate(0,-492.00299)">
</g>
<g
   id="g26"
   transform="translate(0,-492.00299)">
</g>
<g
   id="g28"
   transform="translate(0,-492.00299)">
</g>
<g
   id="g30"
   transform="translate(0,-492.00299)">
</g>
<g
   id="g32"
   transform="translate(0,-492.00299)">
</g>
<g
   id="g34"
   transform="translate(0,-492.00299)">
</g>
<g
   id="g36"
   transform="translate(0,-492.00299)">
</g>
</svg>